{
  "description": "A slim YAMLLint container that can run in standalone-mode or as a GitLab CI-ready CodeClimate engine",
  "languages": ["YAML"],
  "maintainer": {
    "email": "help@megabyte.space",
    "name": "Megabyte Labs"
  },
  "name": "yamllint",
  "spec_version": "0.3.1",
  "version": "0.0.1"
}
